\relax 
\providecommand\hyper@newdestlabel[2]{}
\providecommand*\new@tpo@label[2]{}
\providecommand\HyperFirstAtBeginDocument{\AtBeginDocument}
\HyperFirstAtBeginDocument{\ifx\hyper@anchor\@undefined
\global\let\oldcontentsline\contentsline
\gdef\contentsline#1#2#3#4{\oldcontentsline{#1}{#2}{#3}}
\global\let\oldnewlabel\newlabel
\gdef\newlabel#1#2{\newlabelxx{#1}#2}
\gdef\newlabelxx#1#2#3#4#5#6{\oldnewlabel{#1}{{#2}{#3}}}
\AtEndDocument{\ifx\hyper@anchor\@undefined
\let\contentsline\oldcontentsline
\let\newlabel\oldnewlabel
\fi}
\fi}
\global\let\hyper@last\relax 
\gdef\HyperFirstAtBeginDocument#1{#1}
\providecommand\HyField@AuxAddToFields[1]{}
\providecommand\HyField@AuxAddToCoFields[2]{}
\abx@aux@sortscheme{none}
\abx@aux@refcontext{none/global/}
\@writefile{toc}{\boolfalse {citerequest}\boolfalse {citetracker}\boolfalse {pagetracker}\boolfalse {backtracker}\relax }
\@writefile{lof}{\boolfalse {citerequest}\boolfalse {citetracker}\boolfalse {pagetracker}\boolfalse {backtracker}\relax }
\@writefile{lot}{\boolfalse {citerequest}\boolfalse {citetracker}\boolfalse {pagetracker}\boolfalse {backtracker}\relax }
\select@language{UKenglish}
\@writefile{toc}{\defcounter {refsection}{0}\relax }\@writefile{toc}{\select@language{UKenglish}}
\@writefile{lof}{\defcounter {refsection}{0}\relax }\@writefile{lof}{\select@language{UKenglish}}
\@writefile{lot}{\defcounter {refsection}{0}\relax }\@writefile{lot}{\select@language{UKenglish}}
\abx@aux@cite{Collaboration:2285582}
\abx@aux@segm{0}{0}{Collaboration:2285582}
\@writefile{toc}{\contentsline {section}{\numberline {1}Introduction}{3}{section.1}}
\@writefile{toc}{\contentsline {section}{\numberline {2}Description of the ASIC Prototypes}{3}{section.2}}
\@writefile{toc}{\contentsline {subsection}{\numberline {2.1}LAUROC0}{4}{subsection.2.1}}
\@writefile{lot}{\contentsline {table}{\numberline {1}{\ignorespaces Table representing the characteristics of different LAUROC0 input channels.\relax }}{4}{table.caption.1}}
\providecommand*\caption@xref[2]{\@setref\relax\@undefined{#1}}
\newlabel{fig:Lauroc0_table}{{1}{4}{Table representing the characteristics of different LAUROC0 input channels.\relax }{table.caption.1}{}}
\@writefile{toc}{\contentsline {subsection}{\numberline {2.2}HLC1}{4}{subsection.2.2}}
\@writefile{lof}{\contentsline {figure}{\numberline {1}{\ignorespaces The architecture of the LAUROC0 design.\relax }}{5}{figure.caption.2}}
\newlabel{fig:Lauroc0_architecture}{{1}{5}{The architecture of the LAUROC0 design.\relax }{figure.caption.2}{}}
\@writefile{lof}{\contentsline {figure}{\numberline {2}{\ignorespaces A photo of the LAUROC0 test board.\relax }}{5}{figure.caption.3}}
\newlabel{fig:Lauroc0_photo}{{2}{5}{A photo of the LAUROC0 test board.\relax }{figure.caption.3}{}}
\newlabel{hlc1_layout}{{\caption@xref {hlc1_layout}{ on input line 13}}{6}{HLC1}{figure.caption.4}{}}
\newlabel{hlc1_die_photo}{{\caption@xref {hlc1_die_photo}{ on input line 14}}{6}{HLC1}{figure.caption.4}{}}
\@writefile{lof}{\contentsline {figure}{\numberline {3}{\ignorespaces Left: Layout of the HLC1 ASIC; Right: Photo of the die of the HLC1 ASIC.\relax }}{6}{figure.caption.4}}
\newlabel{hlc1_layout}{{3}{6}{Left: Layout of the HLC1 ASIC; Right: Photo of the die of the HLC1 ASIC.\relax }{figure.caption.4}{}}
\@writefile{lot}{\contentsline {table}{\numberline {2}{\ignorespaces Design specifications of the HLC1 ASIC\relax }}{6}{table.caption.5}}
\newlabel{hlc1_specs}{{2}{6}{Design specifications of the HLC1 ASIC\relax }{table.caption.5}{}}
\@writefile{toc}{\contentsline {section}{\numberline {3}Test Bench}{6}{section.3}}
\@writefile{toc}{\contentsline {subsection}{\numberline {3.1}Front-End Test Board}{6}{subsection.3.1}}
\@writefile{lof}{\contentsline {figure}{\numberline {4}{\ignorespaces Block diagram of the analog front-end test stand.\relax }}{7}{figure.caption.6}}
\newlabel{fetb_bd}{{4}{7}{Block diagram of the analog front-end test stand.\relax }{figure.caption.6}{}}
\@writefile{lof}{\contentsline {figure}{\numberline {5}{\ignorespaces Photo of the front-end test stand with HLC1 test board. \relax }}{8}{figure.caption.7}}
\newlabel{test_stand_photo}{{5}{8}{Photo of the front-end test stand with HLC1 test board. \relax }{figure.caption.7}{}}
\@writefile{toc}{\contentsline {subsection}{\numberline {3.2}Toy Calorimeter Board}{8}{subsection.3.2}}
\@writefile{toc}{\contentsline {subsection}{\numberline {3.3}Front-End Mezzanine}{8}{subsection.3.3}}
\@writefile{lof}{\contentsline {figure}{\numberline {6}{\ignorespaces Photo of the HLC1 test board.\relax }}{9}{figure.caption.8}}
\newlabel{hlc1_tb_photo}{{6}{9}{Photo of the HLC1 test board.\relax }{figure.caption.8}{}}
\@writefile{toc}{\contentsline {subsection}{\numberline {3.4}DAQ Board}{9}{subsection.3.4}}
\@writefile{toc}{\contentsline {section}{\numberline {4}Characterization of the Prototypes}{9}{section.4}}
\@writefile{toc}{\contentsline {subsection}{\numberline {4.1}LAUROC0}{10}{subsection.4.1}}
\@writefile{toc}{\contentsline {subsubsection}{\numberline {4.1.1}input impedance tuning}{10}{subsubsection.4.1.1}}
\@writefile{toc}{\contentsline {paragraph}{\nonumberline Setup}{10}{section*.9}}
\@writefile{toc}{\contentsline {paragraph}{\nonumberline Method}{10}{section*.10}}
\@writefile{toc}{\contentsline {paragraph}{\nonumberline Results}{10}{section*.11}}
\@writefile{toc}{\contentsline {subsubsection}{\numberline {4.1.2}Linearity measurement}{10}{subsubsection.4.1.2}}
\@writefile{toc}{\contentsline {paragraph}{\nonumberline Setup}{10}{section*.13}}
\newlabel{fig:sub1}{{\caption@xref {fig:sub1}{ on input line 16}}{11}{Results}{subfigure.7.1}{}}
\newlabel{fig:sub2}{{\caption@xref {fig:sub2}{ on input line 21}}{11}{Results}{subfigure.7.2}{}}
\@writefile{lof}{\contentsline {figure}{\numberline {7}{\ignorespaces Measured $Z_{in}$ for the 25\_50 channel configured as 25$\Omega $ (left) and as 50$\Omega $ (right) channels. The red line corresponds to the expected $Z_{in}$ values from simulation\relax }}{11}{figure.caption.12}}
\newlabel{fig:LAUROC0_Zin_1}{{7}{11}{Measured $Z_{in}$ for the 25\_50 channel configured as 25$\Omega $ (left) and as 50$\Omega $ (right) channels. The red line corresponds to the expected $Z_{in}$ values from simulation\relax }{figure.caption.12}{}}
\@writefile{toc}{\contentsline {paragraph}{\nonumberline Methods}{11}{section*.14}}
\@writefile{toc}{\contentsline {paragraph}{\nonumberline Results}{11}{section*.15}}
\newlabel{fig:sub1}{{\caption@xref {fig:sub1}{ on input line 19}}{12}{Results}{subfigure.8.1}{}}
\newlabel{fig:sub2}{{\caption@xref {fig:sub2}{ on input line 24}}{12}{Results}{subfigure.8.2}{}}
\newlabel{fig:sub1}{{\caption@xref {fig:sub1}{ on input line 31}}{12}{Results}{subfigure.8.3}{}}
\newlabel{fig:sub2}{{\caption@xref {fig:sub2}{ on input line 36}}{12}{Results}{subfigure.8.4}{}}
\@writefile{lof}{\contentsline {figure}{\numberline {8}{\ignorespaces Linearity measurement of the 25\_50 configured as 25\tmspace  +\thinmuskip {.1667em}$\Omega $ channel. The left plots are the measurements dome at LAL (R$_{f}$=2\tmspace  +\thinmuskip {.1667em}k$\Omega $) and the right plots are from the measurements done at BNL (R$_{f}$=1\tmspace  +\thinmuskip {.1667em}k$\Omega $)\relax }}{12}{figure.caption.16}}
\newlabel{fig:LAUROC0_Line_1}{{8}{12}{Linearity measurement of the 25\_50 configured as 25\,$\Omega $ channel. The left plots are the measurements dome at LAL (R$_{f}$=2\,k$\Omega $) and the right plots are from the measurements done at BNL (R$_{f}$=1\,k$\Omega $)\relax }{figure.caption.16}{}}
\@writefile{toc}{\contentsline {subsubsection}{\numberline {4.1.3}Characterization of the Internal Discriminator}{12}{subsubsection.4.1.3}}
\@writefile{toc}{\contentsline {paragraph}{\nonumberline Setup}{12}{section*.18}}
\newlabel{fig:sub1}{{\caption@xref {fig:sub1}{ on input line 50}}{13}{Results}{subfigure.9.1}{}}
\newlabel{fig:sub2}{{\caption@xref {fig:sub2}{ on input line 55}}{13}{Results}{subfigure.9.2}{}}
\newlabel{fig:sub1}{{\caption@xref {fig:sub1}{ on input line 62}}{13}{Results}{subfigure.9.3}{}}
\newlabel{fig:sub2}{{\caption@xref {fig:sub2}{ on input line 67}}{13}{Results}{subfigure.9.4}{}}
\@writefile{lof}{\contentsline {figure}{\numberline {9}{\ignorespaces Linearity measurement of the 25\_50 configured as 50\tmspace  +\thinmuskip {.1667em}$\Omega $ channel. The left plots are the measurements dome at LAL (R$_{f}$=10\tmspace  +\thinmuskip {.1667em}k$\Omega $) and the right plots are from the measurements done at BNL (R$_{f}$=5\tmspace  +\thinmuskip {.1667em}k$\Omega $)\relax }}{13}{figure.caption.17}}
\newlabel{fig:LAUROC0_Line_2}{{9}{13}{Linearity measurement of the 25\_50 configured as 50\,$\Omega $ channel. The left plots are the measurements dome at LAL (R$_{f}$=10\,k$\Omega $) and the right plots are from the measurements done at BNL (R$_{f}$=5\,k$\Omega $)\relax }{figure.caption.17}{}}
\@writefile{toc}{\contentsline {paragraph}{\nonumberline Method}{13}{section*.19}}
\@writefile{toc}{\contentsline {paragraph}{\nonumberline Results}{13}{section*.20}}
\@writefile{toc}{\contentsline {paragraph}{\nonumberline Conclusion}{14}{section*.21}}
\newlabel{fig:sub1}{{\caption@xref {fig:sub1}{ on input line 18}}{14}{Conclusion}{subfigure.10.1}{}}
\newlabel{fig:sub2}{{\caption@xref {fig:sub2}{ on input line 23}}{14}{Conclusion}{subfigure.10.2}{}}
\@writefile{lof}{\contentsline {figure}{\numberline {10}{\ignorespaces Left Figure: the upper pad represents two pulse shapes taken with different Vth configuration and the lower pad corresponds to the difference between the two shapes. Right Figure: the upper pad represents the linearity measured with Vth set to 700 and 80. The second pad represents the local INL of the measurement taken with Vth configurated to 700. The third corresponds to the application of Optimal Filtering to the two sets of measurements and the difference is shown in the lower pad.\relax }}{14}{figure.caption.22}}
\newlabel{fig:LAUROC0_Discri}{{10}{14}{Left Figure: the upper pad represents two pulse shapes taken with different Vth configuration and the lower pad corresponds to the difference between the two shapes. Right Figure: the upper pad represents the linearity measured with Vth set to 700 and 80. The second pad represents the local INL of the measurement taken with Vth configurated to 700. The third corresponds to the application of Optimal Filtering to the two sets of measurements and the difference is shown in the lower pad.\relax }{figure.caption.22}{}}
\@writefile{toc}{\contentsline {subsubsection}{\numberline {4.1.4}Noise Measurement}{14}{subsubsection.4.1.4}}
\@writefile{toc}{\contentsline {paragraph}{\nonumberline Setup}{14}{section*.23}}
\@writefile{toc}{\contentsline {paragraph}{\nonumberline Methods}{15}{section*.24}}
\@writefile{toc}{\contentsline {paragraph}{\nonumberline Results}{15}{section*.25}}
\@writefile{lot}{\contentsline {table}{\numberline {3}{\ignorespaces ENI measurement results for 25A, 50B and 25\_50 channel of LAUROC0.\relax }}{15}{table.caption.26}}
\newlabel{tab:lauroc_noise}{{3}{15}{ENI measurement results for 25A, 50B and 25\_50 channel of LAUROC0.\relax }{table.caption.26}{}}
\@writefile{toc}{\contentsline {subsubsection}{\numberline {4.1.5}Cross-talk}{15}{subsubsection.4.1.5}}
\@writefile{toc}{\contentsline {paragraph}{\nonumberline Setup}{15}{section*.27}}
\@writefile{toc}{\contentsline {paragraph}{\nonumberline Method}{16}{section*.28}}
\@writefile{toc}{\contentsline {paragraph}{\nonumberline Results}{16}{section*.29}}
\@writefile{lot}{\contentsline {table}{\numberline {4}{\ignorespaces Crosstalk measurement results when injecting current into channel 25A and 50B of LAUROC0.\relax }}{16}{table.caption.30}}
\newlabel{tab:lauroc_crosstalk}{{4}{16}{Crosstalk measurement results when injecting current into channel 25A and 50B of LAUROC0.\relax }{table.caption.30}{}}
\@writefile{toc}{\contentsline {subsubsection}{\numberline {4.1.6}Behavior for Full LHC Orbits}{16}{subsubsection.4.1.6}}
\@writefile{toc}{\contentsline {subsection}{\numberline {4.2}HLC1}{16}{subsection.4.2}}
\@writefile{toc}{\contentsline {subsubsection}{\numberline {4.2.1}input impedance tuning}{16}{subsubsection.4.2.1}}
\@writefile{toc}{\contentsline {paragraph}{\nonumberline Method}{16}{section*.31}}
\@writefile{toc}{\contentsline {paragraph}{\nonumberline Results}{16}{section*.32}}
\newlabel{fig:sub1}{{\caption@xref {fig:sub1}{ on input line 9}}{17}{Results}{subfigure.11.1}{}}
\newlabel{fig:sub2}{{\caption@xref {fig:sub2}{ on input line 14}}{17}{Results}{subfigure.11.2}{}}
\@writefile{lof}{\contentsline {figure}{\numberline {11}{\ignorespaces Measured $Z_{in}$ for the two different ouput channels of HLC1.\relax }}{17}{figure.caption.33}}
\newlabel{fig:HLC1_Zin}{{11}{17}{Measured $Z_{in}$ for the two different ouput channels of HLC1.\relax }{figure.caption.33}{}}
\@writefile{toc}{\contentsline {subsubsection}{\numberline {4.2.2}Linearity measurement}{17}{subsubsection.4.2.2}}
\@writefile{toc}{\contentsline {paragraph}{\nonumberline Method}{17}{section*.34}}
\@writefile{toc}{\contentsline {paragraph}{\nonumberline Results}{17}{section*.35}}
\@writefile{toc}{\contentsline {subsubsection}{\numberline {4.2.3}Noise Measurement}{17}{subsubsection.4.2.3}}
\@writefile{toc}{\contentsline {paragraph}{\nonumberline Setup}{17}{section*.38}}
\newlabel{fig:sub1}{{\caption@xref {fig:sub1}{ on input line 11}}{18}{Results}{subfigure.12.1}{}}
\newlabel{fig:sub2}{{\caption@xref {fig:sub2}{ on input line 16}}{18}{Results}{subfigure.12.2}{}}
\newlabel{fig:sub1}{{\caption@xref {fig:sub1}{ on input line 23}}{18}{Results}{subfigure.12.3}{}}
\newlabel{fig:sub2}{{\caption@xref {fig:sub2}{ on input line 28}}{18}{Results}{subfigure.12.4}{}}
\@writefile{lof}{\contentsline {figure}{\numberline {12}{\ignorespaces Linearity measured for one channel configured as a 25\tmspace  +\thinmuskip {.1667em}$\Omega $ channel. The left plots are plots from the measurements done at LAL and the right are from the measurements at BNL.\relax }}{18}{figure.caption.36}}
\@writefile{toc}{\contentsline {paragraph}{\nonumberline Method}{18}{section*.39}}
\@writefile{toc}{\contentsline {paragraph}{\nonumberline Results}{18}{section*.40}}
\newlabel{fig:sub1}{{\caption@xref {fig:sub1}{ on input line 40}}{19}{Results}{subfigure.13.1}{}}
\newlabel{fig:sub2}{{\caption@xref {fig:sub2}{ on input line 45}}{19}{Results}{subfigure.13.2}{}}
\newlabel{fig:sub1}{{\caption@xref {fig:sub1}{ on input line 52}}{19}{Results}{subfigure.13.3}{}}
\newlabel{fig:sub2}{{\caption@xref {fig:sub2}{ on input line 57}}{19}{Results}{subfigure.13.4}{}}
\@writefile{lof}{\contentsline {figure}{\numberline {13}{\ignorespaces Linearity measured for one channel configured as a 50\tmspace  +\thinmuskip {.1667em}$\Omega $ channel. The left plots are plots from the measurements done at LAL and the right are from the measurements at BNL.\relax }}{19}{figure.caption.37}}
\newlabel{fig:HLC1_Line}{{13}{19}{Linearity measured for one channel configured as a 50\,$\Omega $ channel. The left plots are plots from the measurements done at LAL and the right are from the measurements at BNL.\relax }{figure.caption.37}{}}
\@writefile{lot}{\contentsline {table}{\numberline {5}{\ignorespaces Full system equivalent noise current of HLC1 (Unit: $nA$).\relax }}{19}{table.caption.41}}
\newlabel{tab:hlc1_eni_before_sub}{{5}{19}{Full system equivalent noise current of HLC1 (Unit: $nA$).\relax }{table.caption.41}{}}
\@writefile{lot}{\contentsline {table}{\numberline {6}{\ignorespaces Equivalent noise current of HLC1 after quadratic subtraction (Unit: $nA$).\relax }}{20}{table.caption.42}}
\newlabel{tab:hlc1_eni_after_sub}{{6}{20}{Equivalent noise current of HLC1 after quadratic subtraction (Unit: $nA$).\relax }{table.caption.42}{}}
\@writefile{toc}{\contentsline {subsubsection}{\numberline {4.2.4}Summing Outputs}{20}{subsubsection.4.2.4}}
\@writefile{toc}{\contentsline {paragraph}{\nonumberline Setup}{20}{section*.43}}
\@writefile{toc}{\contentsline {paragraph}{\nonumberline Methods}{20}{section*.44}}
\@writefile{toc}{\contentsline {paragraph}{\nonumberline Results}{20}{section*.45}}
\@writefile{lot}{\contentsline {table}{\numberline {7}{\ignorespaces Summary of saturation point and gain of the summing outputs of HLC1.\relax }}{20}{table.caption.46}}
\newlabel{tab:hlc1_sum_test_res}{{7}{20}{Summary of saturation point and gain of the summing outputs of HLC1.\relax }{table.caption.46}{}}
\@writefile{toc}{\contentsline {subsubsection}{\numberline {4.2.5}Cross-talk}{21}{subsubsection.4.2.5}}
\@writefile{toc}{\contentsline {paragraph}{\nonumberline Setup}{21}{section*.47}}
\@writefile{toc}{\contentsline {paragraph}{\nonumberline Methods}{21}{section*.48}}
\@writefile{toc}{\contentsline {paragraph}{\nonumberline Results}{21}{section*.49}}
\@writefile{lot}{\contentsline {table}{\numberline {8}{\ignorespaces Crosstalk measurement results for HLC1.\relax }}{21}{table.caption.50}}
\newlabel{tab:hlc1_crosstalk_res}{{8}{21}{Crosstalk measurement results for HLC1.\relax }{table.caption.50}{}}
\@writefile{toc}{\contentsline {subsection}{\numberline {4.3}Summary and Comparison}{21}{subsection.4.3}}
\@writefile{toc}{\contentsline {section}{\numberline {5}Conclusion}{21}{section.5}}
\abx@aux@refcontextdefaultsdone
\abx@aux@defaultrefcontext{0}{Collaboration:2285582}{none/global/}
\@writefile{toc}{\contentsline {part}{Appendices}{24}{part*.54}}
