% $ biblatex auxiliary file $
% $ biblatex bbl format version 2.8 $
% Do not modify the above lines!
%
% This is an auxiliary file used by the 'biblatex' package.
% This file may safely be deleted. It will be recreated by
% biber as required.
%
\begingroup
\makeatletter
\@ifundefined{ver@biblatex.sty}
  {\@latex@error
     {Missing 'biblatex' package}
     {The bibliography requires the 'biblatex' package.}
      \aftergroup\endinput}
  {}
\endgroup


\refsection{0}
  \sortlist[entry]{none/global/}
    \entry{Collaboration:2285582}{report}{}
      \name{author}{1}{}{%
        {{hash=a3364242a05dc5a80a93fa55804031af}{%
           family={Collaboration},
           familyi={C\bibinitperiod},
           given={ATLAS},
           giveni={A\bibinitperiod}}}%
      }
      \list{institution}{1}{%
        {CERN}%
      }
      \list{location}{1}{%
        {Geneva}%
      }
      \strng{namehash}{a3364242a05dc5a80a93fa55804031af}
      \strng{fullhash}{a3364242a05dc5a80a93fa55804031af}
      \strng{authornamehash}{a3364242a05dc5a80a93fa55804031af}
      \strng{authorfullhash}{a3364242a05dc5a80a93fa55804031af}
      \field{sortinit}{1}
      \field{sortinithash}{27a2bc5dfb9ed0a0422134d636544b5d}
      \field{labelnamesource}{author}
      \field{labeltitlesource}{title}
      \field{month}{9}
      \field{number}{CERN-LHCC-2017-018. ATLAS-TDR-027}
      \field{title}{{Technical Design Report for the Phase-II Upgrade of the ATLAS LAr Calorimeter}}
      \field{type}{techreport}
      \field{year}{2017}
      \verb{url}
      \verb http://cds.cern.ch/record/2285582
      \endverb
    \endentry
  \endsortlist
\endrefsection
\endinput

